<?xml version="1.0" encoding="utf-8"?>
<!-- Generator: Adobe Illustrator 23.0.0, SVG Export Plug-In . SVG Version: 6.00 Build 0)  -->
<svg version="1.1" id="Capa_1" xmlns="http://www.w3.org/2000/svg" xmlns:xlink="http://www.w3.org/1999/xlink" x="0px" y="0px"
	 viewBox="0 0 357 433.5" style="enable-background:new 0 0 357 433.5;" xml:space="preserve">
<style type="text/css">
	.st0{fill:#FFFFFF;}
</style>
<g>
	<g id="file-download">
		<path class="st0" d="M357,153H255V0H102v153H0l178.5,178.5L357,153z M0,382.5v51h357v-51H0z"/>
	</g>
</g>
</svg>
