<?xml version="1.0" encoding="utf-8"?>
<!-- Generator: Adobe Illustrator 23.0.0, SVG Export Plug-In . SVG Version: 6.00 Build 0)  -->
<svg version="1.1" id="Capa_1" xmlns="http://www.w3.org/2000/svg" xmlns:xlink="http://www.w3.org/1999/xlink" x="0px" y="0px"
	 viewBox="0 0 458 464.89" style="enable-background:new 0 0 458 464.89;" xml:space="preserve">
<style type="text/css">
	.st0{fill:#FFFFFF;}
</style>
<g>
	<g id="play-circle-outline">
		<path class="st0" d="M182.5,328.63L316,228.5L182.5,128.38V328.63z M227,6C104.63,6,4.5,106.13,4.5,228.5S104.63,451,227,451
			s222.5-100.13,222.5-222.5S349.38,6,227,6z M227,406.5c-97.9,0-178-80.1-178-178s80.1-178,178-178s178,80.1,178,178
			S324.9,406.5,227,406.5z"/>
	</g>
</g>
</svg>
