<?xml version="1.0" encoding="utf-8"?>
<!-- Generator: Adobe Illustrator 23.0.0, SVG Export Plug-In . SVG Version: 6.00 Build 0)  -->
<svg version="1.1" id="Capa_1" xmlns="http://www.w3.org/2000/svg" xmlns:xlink="http://www.w3.org/1999/xlink" x="0px" y="0px"
	 viewBox="0 0 519 139" style="enable-background:new 0 0 519 139;" xml:space="preserve">
<style type="text/css">
	.st0{fill:#FFFFFF;}
	.st1{fill:#C31F39;}
</style>
<path class="st0" d="M86.55,38.04c-0.82-10.22-6.26-13.19-10.88-13.19c-6.59,0-10.22,4.29-10.22,11.7c0,20.27,41.53,30,41.53,62.3
	c0,19.61-13.19,30.49-32.3,30.49c-18.95,0-29.83-15.16-30.65-32.96l19.45-2.8c0.82,12.03,5.6,17.96,12.2,17.96
	c7.09,0,11.87-3.79,11.87-10.88C87.53,77.1,46,70.84,46,36.73C46,17.77,57.54,7.06,77.65,7.06c16.65,0,26.53,12.03,28.35,28.84
	L86.55,38.04z"/>
<path class="st0" d="M119.96,127.7V8.71h20.44V127.7H119.96z"/>
<path class="st0" d="M159.64,26.51V8.71h54.06v19.45l-37.58,81.75h37.58v17.8h-58.67v-19.45l38.07-81.75H159.64z"/>
<polygon class="st0" points="272.9,8.71 247.52,8.71 225.6,127.7 245.38,127.7 260.05,32.44 260.38,32.44 275.05,127.7 
	294.82,127.7 "/>
<path class="st0" d="M312.14,26.51h-19.78V8.71h59.99v17.8h-19.78V127.7h-20.44V26.51z"/>
<path class="st0" d="M367.07,127.7V8.71h20.44v51.45h21.75V8.71h20.44V127.7h-20.44V77.96h-21.75v49.74H367.07z"/>
<rect x="26.72" y="42.96" class="st1" width="469.03" height="14.06"/>
<rect x="26.72" y="81.9" class="st1" width="469.03" height="14.06"/>
<path class="st0" d="M9.6,127.7V8.71h20.44V127.7H9.6z"/>
<path class="st0" d="M449.16,8.71h20.44v89.82c0,8.74,3.46,13.02,10.88,13.02c7.42,0,10.88-4.29,10.88-13.02V8.71h20.44v89
	c0,20.44-11.87,31.64-31.31,31.64c-19.45,0-31.31-11.21-31.31-31.64V8.71z"/>
</svg>
